Core/Src/tests/test_1/TEK00000.CSV

Model,TBS1202C
Firmware Version,v2015-08-04-prequal4ch70_v1.3

Point Format,Y,
Horizontal Units,S,
Horizontal Scale,0.1,
Sample Interval,8e-05,
Filter Frequency,2e+08,
Record Length,20000,
Gating,0.0% to 100.0%,0.0% to 100.0%
Probe Attenuation,10,10
Vertical Units,V,V
Vertical Offset,0,0
Vertical Scale,1,1
Label,,
TIME,CH1,CH2
-8.4096e-01,0.12,3.4
-8.4088e-01,0.12,3.44
-8.4080e-01,0.12,3.4
-8.4072e-01,0.16,3.36
-8.4064e-01,0.12,3.36
-8.4056e-01,0.08,3.4
-8.4048e-01,0.12,3.44
-8.4040e-01,0.12,3.44
-8.4032e-01,0.12,3.4
-8.4024e-01,0.12,3.44
-8.4016e-01,0.08,3.4
-8.4008e-01,0.12,3.44
-8.4000e-01,0.12,3.4
-8.3992e-01,0.12,3.44
-8.3984e-01,0.08,3.4
-8.3976e-01,0.16,3.36
-8.3968e-01,0.12,3.4
-8.3960e-01,0.12,3.44
-8.3952e-01,0.12,3.4
-8.3944e-01,0.16,3.4
-8.3936e-01,0.12,3.4
-8.3928e-01,0.12,3.44
-8.3920e-01,0.08,3.44
-8.3912e-01,0.08,3.4
-8.3904e-01,0.12,3.44
-8.3896e-01,0.12,3.44
-8.3888e-01,0.12,3.4
-8.3880e-01,0.12,3.4
-8.3872e-01,0.16,3.44
-8.3864e-01,0.12,3.44
-8.3856e-01,0.16,3.4
-8.3848e-01,0.12,3.4
-8.3840e-01,0.16,3.44
-8.3832e-01,0.08,3.4
-8.3824e-01,0.12,3.44
-8.3816e-01,0.08,3.44
-8.3808e-01,0.12,3.44
-8.3800e-01,0.12,3.44
-8.3792e-01,0.08,3.4
-8.3784e-01,0.08,3.44
-8.3776e-01,0.12,3.4
-8.3768e-01,0.12,3.4
-8.3760e-01,0.12,3.44
-8.3752e-01,0.08,3.4
-8.3744e-01,0.12,3.44
-8.3736e-01,0.16,3.4
-8.3728e-01,0.12,3.44
-8.3720e-01,0.08,3.4
-8.3712e-01,0.16,3.44
-8.3704e-01,0.16,3.4
-8.3696e-01,0.04,3.32
-8.3688e-01,0.08,3.4
-8.3680e-01,0.12,3.44
-8.3672e-01,0.16,3.44
-8.3664e-01,0.08,3.4
-8.3656e-01,0.16,3.4
-8.3648e-01,0.12,3.44
-8.3640e-01,0.12,3.4
-8.3632e-01,0.12,3.4
-8.3624e-01,0.08,3.44
-8.3616e-01,0.12,3.44
-8.3608e-01,0.16,3.44
-8.3600e-01,0.12,3.4
-8.3592e-01,0.12,3.44
-8.3584e-01,0.16,3.4
-8.3576e-01,0.12,3.4
-8.3568e-01,0.16,3.44
-8.3560e-01,0.12,3.44
-8.3552e-01,0.12,3.4
-8.3544e-01,0.16,3.36
-8.3536e-01,0.08,3.4
-8.3528e-01,0.12,3.44
-8.3520e-01,0.12,3.44
-8.3512e-01,0.16,3.44
-8.3504e-01,0.08,3.4
-8.3496e-01,0.12,3.4
-8.3488e-01,0.08,3.36
-8.3480e-01,0.12,3.4
-8.3472e-01,0.12,3.4
-8.3464e-01,0.16,3.44
-8.3456e-01,0.12,3.44
-8.3448e-01,0.24,3.48
-8.3440e-01,0.08,3.4
-8.3432e-01,0.08,3.4
-8.3424e-01,0.08,3.4
-8.3416e-01,0.16,3.44
-8.3408e-01,0.12,3.36
-8.3400e-01,0.12,3.4
-8.3392e-01,0.08,3.4
-8.3384e-01,0.16,3.4
-8.3376e-01,0.16,3.36
-8.3368e-01,0.08,3.4
-8.3360e-01,0.08,3.44
-8.3352e-01,0.12,3.4
-8.3344e-01,0.12,3.44
-8.3336e-01,0.12,3.44
-8.3328e-01,0.08,3.4
-8.3320e-01,0.12,3.36
-8.3312e-01,0.08,3.4
-8.3304e-01,0.12,3.4
-8.3296e-01,0.12,3.44
-8.3288e-01,0.12,3.4
-8.3280e-01,0.12,3.4
-8.3272e-01,0.12,3.44
-8.3264e-01,0.12,3.4
-8.3256e-01,0.12,3.4
-8.3248e-01,0.12,3.36
-8.3240e-01,0.12,3.4
-8.3232e-01,0.12,3.4
-8.3224e-01,0.12,3.4
-8.3216e-01,0.12,3.36
-8.3208e-01,0.08,3.4
-8.3200e-01,0.12,3.4
-8.3192e-01,0.12,3.4
-8.3184e-01,0.12,3.4
-8.3176e-01,0.12,3.36
-8.3168e-01,0.12,3.4
-8.3160e-01,0.12,3.44
-8.3152e-01,0.16,3.44
-8.3144e-01,0.12,3.4
-8.3136e-01,0.12,3.44
-8.3128e-01,0.12,3.44
-8.3120e-01,0.12,3.44
-8.3112e-01,0.08,3.44
-8.3104e-01,0.12,3.36
-8.3096e-01,0.12,3.4
-8.3088e-01,0.12,3.4
-8.3080e-01,0.12,3.44
-8.3072e-01,0.12,3.4
-8.3064e-01,0.12,3.4
-8.3056e-01,0.12,3.4
-8.3048e-01,0.08,3.4
-8.3040e-01,0.12,3.4
-8.3032e-01,0.12,3.4
-8.3024e-01,0.12,3.4
-8.3016e-01,0.08,3.4
-8.3008e-01,0.12,3.4
-8.3000e-01,0.12,3.4
-8.2992e-01,0.12,3.36
-8.2984e-01,0.12,3.4
-8.2976e-01,0.08,3.4
-8.2968e-01,0.08,3.4
-8.2960e-01,0.12,3.4
-8.2952e-01,0.08,3.4
-8.2944e-01,0.12,3.36
-8.2936e-01,0.12,3.44
-8.2928e-01,0.12,3.44
-8.2920e-01,0.16,3.4
-8.2912e-01,0.12,3.4
-8.2904e-01,0.12,3.4
-8.2896e-01,0.12,3.4
-8.2888e-01,0.12,3.4
-8.2880e-01,0.12,3.4
-8.2872e-01,0.12,3.4
-8.2864e-01,0.12,3.4
-8.2856e-01,0.08,3.4
-8.2848e-01,0.12,3.44
-8.2840e-01,0.08,3.4
-8.2832e-01,0.12,3.4
-8.2824e-01,0.12,3.44
-8.2816e-01,0.16,3.44
-8.2808e-01,0.08,3.4
-8.2800e-01,0.12,3.4
-8.2792e-01,0.12,3.4
-8.2784e-01,0.12,3.4
-8.2776e-01,0.08,3.4
-8.2768e-01,0.12,3.4
-8.2760e-01,0.12,3.44
-8.2752e-01,0.12,3.4
-8.2744e-01,0.12,3.4
-8.2736e-01,0.08,3.44
-8.2728e-01,0.08,3.4
-8.2720e-01,0.16,3.36
-8.2712e-01,0.08,3.4
-8.2704e-01,0.12,3.44
-8.2696e-01,0.12,3.44
-8.2688e-01,0.16,3.4
-8.2680e-01,0.12,3.44
-8.2672e-01,0.12,3.44
-8.2664e-01,0.12,3.4
-8.2656e-01,0.08,3.4
-8.2648e-01,0.08,3.4
-8.2640e-01,0.08,3.4
-8.2632e-01,0.16,3.44
-8.2624e-01,0.16,3.4
-8.2616e-01,0.16,3.4
-8.2608e-01,0.2,3.48
-8.2600e-01,0.16,3.4
-8.2592e-01,0.12,3.36
-8.2584e-01,0.12,3.4
-8.2576e-01,0.16,3.36
-8.2568e-01,0.08,3.44
-8.2560e-01,0.08,3.4
-8.2552e-01,0.12,3.44
-8.2544e-01,0.12,3.4
-8.2536e-01,0.12,3.44
-8.2528e-01,0.16,3.36
-8.2520e-01,0.16,3.44
-8.2512e-01,0.16,3.4
-8.2504e-01,0.12,3.44
-8.2496e-01,0.08,3.4
-8.2488e-01,0.12,3.4
-8.2480e-01,0.12,3.4
-8.2472e-01,0.12,3.44
-8.2464e-01,0.16,3.4
-8.2456e-01,0.16,3.44
-8.2448e-01,0.12,3.44
-8.2440e-01,0.08,3.4
-8.2432e-01,0.12,3.44
-8.2424e-01,0.16,3.44
-8.2416e-01,0.16,3.44
-8.2408e-01,0.16,3.44
-8.2400e-01,0.16,3.44
-8.2392e-01,0.12,3.44
-8.2384e-01,0.08,3.4
-8.2376e-01,0.12,3.36
-8.2368e-01,0.08,3.44
-8.2360e-01,0.12,3.4
-8.2352e-01,0.08,3.44
-8.2344e-01,0.16,3.4
-8.2336e-01,0.16,3.44
-8.2328e-01,0.12,3.4
-8.2320e-01,0.16,3.44
-8.2312e-01,0.12,3.4
-8.2304e-01,0.12,3.44
-8.2296e-01,0.12,3.44
-8.2288e-01,0.12,3.4
-8.2280e-01,0.12,3.44
-8.2272e-01,0.08,3.4
-8.2264e-01,0.12,3.4
-8.2256e-01,0.12,3.4
-8.2248e-01,0.12,3.44
-8.2240e-01,0.08,3.4
-8.2232e-01,0.08,3.4
-8.2224e-01,0.12,3.44
-8.2216e-01,0.16,3.4
-8.2208e-01,0.08,3.4
-8.2200e-01,0.08,3.4
-8.2192e-01,0.12,3.44
-8.2184e-01,0.08,3.4
-8.2176e-01,0.16,3.4
-8.2168e-01,0.16,3.44
-8.2160e-01,0.12,3.44
-8.2152e-01,0.08,3.44
-8.2144e-01,0.12,3.4
-8.2136e-01,0.16,3.44
-8.2128e-01,0.08,3.44
-8.2120e-01,0.12,3.4
-8.2112e-01,0.16,3.44
-8.2104e-01,0.12,3.4
-8.2096e-01,0.08,3.4
-8.2088e-01,0.08,3.44
-8.2080e-01,0.12,3.4
-8.2072e-01,0.08,3.4
-8.2064e-01,0.08,3.4
-8.2056e-01,0.12,3.44
-8.2048e-01,0.16,3.44
-8.2040e-01,0.12,3.4
-8.2032e-01,0.12,3.4
-8.2024e-01,0.12,3.4
-8.2016e-01,0.12,3.44
-8.2008e-01,0.12,3.4
-8.2000e-01,0.12,3.44
-8.1992e-01,0.08,3.4
-8.1984e-01,0.16,3.4
-8.1976e-01,0.16,3.36
-8.1968e-01,0.16,3.4
-8.1960e-01,0.12,3.4
-8.1952e-01,0.12,3.4
-8.1944e-01,0.12,3.4
-8.1936e-01,0.08,3.44
-8.1928e-01,0.08,3.44
-8.1920e-01,0.08,3.4
-8.1912e-01,0.12,3.44
-8.1904e-01,0.12,3.4
-8.1896e-01,0.08,3.4
-8.1888e-01,0.16,3.4
-8.1880e-01,0.12,3.4
-8.1872e-01,0.12,3.4
-8.1864e-01,0.12,3.4
-8.1856e-01,0.08,3.44
-8.1848e-01,0.08,3.4
-8.1840e-01,0.12,3.4
-8.1832e-01,0.12,3.4
-8.1824e-01,0.16,3.4
-8.1816e-01,0.16,3.44
-8.1808e-01,0.12,3.44
-8.1800e-01,0.12,3.36
-8.1792e-01,0.08,3.4
-8.1784e-01,0.16,3.4
-8.1776e-01,0.12,3.4
-8.1768e-01,0.12,3.36
-8.1760e-01,0.12,3.4
-8.1752e-01,0.12,3.44
-8.1744e-01,0.12,3.44
-8.1736e-01,0.12,3.4
-8.1728e-01,0.12,3.44
-8.1720e-01,0.08,3.4
-8.1712e-01,0.12,3.4
-8.1704e-01,0.12,3.36
-8.1696e-01,0.12,3.4
-8.1688e-01,0.16,3.44
-8.1680e-01,0.12,3.4
-8.1672e-01,0.12,3.4
-8.1664e-01,0.16,3.44
-8.1656e-01,0.12,3.44
-8.1648e-01,0.12,3.4
-8.1640e-01,0.12,3.4
-8.1632e-01,0.16,3.4
-8.1624e-01,0.12,3.36
-8.1616e-01,0.12,3.44
-8.1608e-01,0.12,3.4
-8.1600e-01,0.12,3.4
-8.1592e-01,0.08,3.44
-8.1584e-01,0.12,3.44
-8.1576e-01,0.12,3.4
-8.1568e-01,0.16,3.44
-8.1560e-01,0.12,3.4
-8.1552e-01,0.12,3.44
-8.1544e-01,0.12,3.4
-8.1536e-01,0.08,3.4
-8.1528e-01,0.12,3.4
-8.1520e-01,0.16,3.4
-8.1512e-01,0.12,3.36
-8.1504e-01,0.16,3.36
-8.1496e-01,0.16,3.4
-8.1488e-01,0.08,3.36
-8.1480e-01,0.12,3.36
-8.1472e-01,0.08,3.4
-8.1464e-01,0.12,3.4
-8.1456e-01,0.12,3.44
-8.1448e-01,0.12,3.44
-8.1440e-01,0.12,3.44
-8.1432e-01,0.12,3.44
-8.1424e-01,0.12,3.4
-8.1416e-01,0.12,3.4
-8.1408e-01,0.08,3.4
-8.1400e-01,0.16,3.4
-8.1392e-01,0.16,3.4
-8.1384e-01,0.12,3.44
-8.1376e-01,0.08,3.4
-8.1368e-01,0.12,3.36
-8.1360e-01,0.12,3.44
-8.1352e-01,0.12,3.4
-8.1344e-01,0.16,3.4
-8.1336e-01,0.08,3.4
-8.1328e-01,0.12,3.4
-8.1320e-01,0.12,3.36
-8.1312e-01,0.12,3.4
-8.1304e-01,0.08,3.4
-8.1296e-01,0.12,3.44
-8.1288e-01,0.12,3.44
-8.1280e-01,0.12,3.4
-8.1272e-01,0.08,3.4
-8.1264e-01,0.12,3.44
-8.1256e-01,0.12,3.36
-8.1248e-01,0.12,3.4
-8.1240e-01,0.12,3.4
-8.1232e-01,0.16,3.4
-8.1224e-01,0.12,3.44
-8.1216e-01,0.16,3.44
-8.1208e-01,0.12,3.4
-8.1200e-01,0.16,3.44
-8.1192e-01,0.08,3.4
-8.1184e-01,0.12,3.4
-8.1176e-01,0.12,3.36
-8.1168e-01,0.12,3.4
-8.1160e-01,0.08,3.4
-8.1152e-01,0.12,3.4
-8.1144e-01,0.16,3.4
-8.1136e-01,0.12,3.36
-8.1128e-01,0.12,3.4
-8.1120e-01,0.12,3.4
-8.1112e-01,0.16,3.4
-8.1104e-01,0.12,3.4
-8.1096e-01,0.12,3.44
-8.1088e-01,0.16,3.4
-8.1080e-01,0.12,3.44
-8.1072e-01,0.12,3.36
-8.1064e-01,0.16,3.44
-8.1056e-01,0.16,3.44
-8.1048e-01,0.16,3.44
-8.1040e-01,0.16,3.4
-8.1032e-01,0.12,3.36
-8.1024e-01,0.12,3.4
-8.1016e-01,0.16,3.4
-8.1008e-01,0.12,3.4
-8.1000e-01,0.16,3.4
-8.0992e-01,0.12,3.4
-8.0984e-01,0.2,3.44
-8.0976e-01,0.16,3.36
-8.0968e-01,0.12,3.44
-8.0960e-01,0.16,3.44
-8.0952e-01,0.12,3.44
-8.0944e-01,0.12,3.44
-8.0936e-01,0.08,3.36
-8.0928e-01,0.08,3.44
-8.0920e-01,0.16,3.44
-8.0912e-01,0.16,3.4
-8.0904e-01,0.16,3.4
-8.0896e-01,0.12,3.44
-8.0888e-01,0.16,3.36
-8.0880e-01,0.12,3.4
-8.0872e-01,0.12,3.44
-8.0864e-01,0.16,3.4
-8.0856e-01,0.08,3.44
-8.0848e-01,0.08,3.4
-8.0840e-01,0.12,3.44
-8.0832e-01,0.08,3.36
-8.0824e-01,0.08,3.36
-8.0816e-01,0.12,3.4
-8.0808e-01,0.08,3.4
-8.0800e-01,0.08,3.4
-8.0792e-01,0.12,3.4
-8.0784e-01,0.12,3.44
-8.0776e-01,0.12,3.4
-8.0768e-01,0.12,3.4
-8.0760e-01,0.08,3.4
-8.0752e-01,0.12,3.4
-8.0744e-01,0.12,3.44
-8.0736e-01,0.12,3.4
-8.0728e-01,0.12,3.4
-8.0720e-01,0.16,3.36
-8.0712e-01,0.12,3.4
-8.0704e-01,0.16,3.4
-8.0696e-01,0.16,3.4
-8.0688e-01,0.08,3.4
-8.0680e-01,0.12,3.44
-8.0672e-01,0.08,3.4
-8.0664e-01,0.12,3.4
-8.0656e-01,0.12,3.4
-8.0648e-01,0.12,3.4
-8.0640e-01,0.12,3.4
-8.0632e-01,0.12,3.36
-8.0624e-01,0.12,3.4
-8.0616e-01,0.12,3.4
-8.0608e-01,0.12,3.44
-8.0600e-01,0.12,3.4
-8.0592e-01,0.12,3.4
-8.0584e-01,0.12,3.4
-8.0576e-01,0.12,3.44
-8.0568e-01,0.12,3.36
-8.0560e-01,0.12,3.4
-8.0552e-01,0.12,3.36
-8.0544e-01,0.12,3.4
-8.0536e-01,0.08,3.4
-8.0528e-01,0.12,3.4
-8.0520e-01,0.12,3.44
-8.0512e-01,0.08,3.4
-8.0504e-01,0.08,3.4
-8.0496e-01,0.12,3.44
-8.0488e-01,0.12,3.4
-8.0480e-01,0.12,3.4
-8.0472e-01,0.08,3.44
-8.0464e-01,0.12,3.36
-8.0456e-01,0.12,3.4
-8.0448e-01,0.12,3.36
-8.0440e-01,0.08,3.44
-8.0432e-01,0.12,3.4
-8.0424e-01,0.08,3.4
-8.0416e-01,0.12,3.4
-8.0408e-01,0.12,3.4
-8.0400e-01,0.12,3.36
-8.0392e-01,0.12,3.4
-8.0384e-01,0.08,3.4
-8.0376e-01,0.16,3.4
-8.0368e-01,0.12,3.4
-8.0360e-01,0.12,3.4
-8.0352e-01,0.16,3.4
-8.0344e-01,0.12,3.4
-8.0336e-01,0.16,3.4
-8.0328e-01,0.12,3.36
-8.0320e-01,0.12,3.4
-8.0312e-01,0.12,3.4
-8.0304e-01,0.12,3.4
-8.0296e-01,0.08,3.44
-8.0288e-01,0.16,3.4
-8.0280e-01,0.08,3.4
-8.0272e-01,0.08,3.4
-8.0264e-01,0.12,3.44
-8.0256e-01,0.12,3.4
-8.0248e-01,0.12,3.44
-8.0240e-01,0.12,3.4
-8.0232e-01,0.12,3.4
-8.0224e-01,0.12,3.4
-8.0216e-01,0.08,3.4
-8.0208e-01,0.12,3.44
-8.0200e-01,0.12,3.4
-8.0192e-01,0.12,3.4
-8.0184e-01,0.12,3.36
-8.0176e-01,0.16,3.4
-8.0168e-01,0.12,3.4
-8.0160e-01,0.12,3.44
-8.0152e-01,0.12,3.4
-8.0144e-01,0.08,3.4
-8.0136e-01,0.08,3.4
-8.0128e-01,0.12,3.44
-8.0120e-01,0.16,3.44
-8.0112e-01,0.12,3.44
-8.0104e-01,0.12,3.44
-8.0096e-01,0.16,3.44
-8.0088e-01,0.12,3.4
-8.0080e-01,0.12,3.36
-8.0072e-01,0.12,3.44
-8.0064e-01,0.12,3.4
-8.0056e-01,0.16,3.44
-8.0048e-01,0.12,3.44
-8.0040e-01,0.08,3.44
-8.0032e-01,0.16,3.4
-8.0024e-01,0.12,3.44
-8.0016e-01,0.12,3.44
-8.0008e-01,0.16,3.44
-8.0000e-01,0.16,3.4
-7.9992e-01,0.12,3.44
-7.9984e-01,0.12,3.44
-7.9976e-01,0.12,3.4
-7.9968e-01,0.08,3.44
-7.9960e-01,0.12,3.44
-7.9952e-01,0.12,3.44
-7.9944e-01,0.12,3.4
-7.9936e-01,0.12,3.4
-7.9928e-01,0.12,3.4
-7.9920e-01,0.16,3.4
-7.9912e-01,0.12,3.4
-7.9904e-01,0.16,3.44
-7.9896e-01,0.16,3.44
-7.9888e-01,0.12,3.36
-7.9880e-01,0.08,3.4
-7.9872e-01,0.12,3.4
-7.9864e-01,0.12,3.36
-7.9856e-01,0.12,3.4
-7.9848e-01,0.12,3.44
-7.9840e-01,0.08,3.44
-7.9832e-01,0.16,3.4
-7.9824e-01,0.12,3.4
-7.9816e-01,0.12,3.4
-7.9808e-01,0.12,3.44
-7.9800e-01,0.16,3.4
-7.9792e-01,0.08,3.4
-7.9784e-01,0.12,3.44
-7.9776e-01,0.16,3.44
-7.9768e-01,0.16,3.44
-7.9760e-01,0.12,3.4
-7.9752e-01,0.08,3.4
-7.9744e-01,0.16,3.4
-7.9736e-01,0.16,3.36
-7.9728e-01,0.12,3.44
-7.9720e-01,0.12,3.44
-7.9712e-01,0.12,3.4
-7.9704e-01,0.12,3.4
-7.9696e-01,0.12,3.4
-7.9688e-01,0.08,3.4
-7.9680e-01,0.12,3.4
-7.9672e-01,0.12,3.4
-7.9664e-01,0.12,3.4
-7.9656e-01,0.16,3.44
-7.9648e-01,0.12,3.44
-7.9640e-01,0.12,3.4
-7.9632e-01,0.12,3.44
-7.9624e-01,0.12,3.4
-7.9616e-01,0.16,3.44
-7.9608e-01,0.12,3.44
-7.9600e-01,0.12,3.4
-7.9592e-01,0.12,3.4
-7.9584e-01,0.12,3.44
-7.9576e-01,0.08,3.36
-7.9568e-01,0.16,3.44
-7.9560e-01,0.12,3.4
-7.9552e-01,0.16,3.48
-7.9544e-01,0.16,3.4
-7.9536e-01,0.08,3.4
-7.9528e-01,0.12,3.44
-7.9520e-01,0.12,3.4
-7.9512e-01,0.12,3.4
-7.9504e-01,0.12,3.4
-7.9496e-01,0.08,3.4
-7.9488e-01,0.12,3.4
-7.9480e-01,0.08,3.44
-7.9472e-01,0.08,3.4
-7.9464e-01,0.16,3.4
-7.9456e-01,0.12,3.4
-7.9448e-01,0.12,3.4
-7.9440e-01,0.12,3.36
-7.9432e-01,0.08,3.44
-7.9424e-01,0.12,3.44
-7.9416e-01,0.12,3.4
-7.9408e-01,0.08,3.44
-7.9400e-01,0.08,3.36
-7.9392e-01,0.12,3.4
-7.9384e-01,0.08,3.44
-7.9376e-01,0.16,3.4
-7.9368e-01,0.16,3.44
-7.9360e-01,0.08,3.4
-7.9352e-01,0.12,3.44
-7.9344e-01,0.08,3.36
-7.9336e-01,0.08,3.4
-7.9328e-01,0.12,3.4
-7.9320e-01,0.08,3.4
-7.9312e-01,0.12,3.4
-7.9304e-01,0.16,3.4
-7.9296e-01,0.12,3.4
-7.9288e-01,0.12,3.44
-7.9280e-01,0.12,3.4
-7.9272e-01,0.12,3.4
-7.9264e-01,0.12,3.4
-7.9256e-01,0.08,3.4
-7.9248e-01,0.12,3.4
-7.9240e-01,0.08,3.44
-7.9232e-01,0.08,3.4
-7.9224e-01,0.08,3.4
-7.9216e-01,0.16,3.4
-7.9208e-01,0.08,3.44
-7.9200e-01,0.08,3.36
-7.9192e-01,0.12,3.4
-7.9184e-01,0.12,3.44
-7.9176e-01,0.16,3.36
-7.9168e-01,0.08,3.4
-7.9160e-01,0.08,3.4
-7.9152e-01,0.08,3.36
-7.9144e-01,0.12,3.4
-7.9136e-01,0.12,3.4
-7.9128e-01,0.12,3.44
-7.9120e-01,0.12,3.4
-7.9112e-01,0.08,3.4
-7.9104e-01,0.12,3.4
-7.9096e-01,0.12,3.44
-7.9088e-01,0.16,3.36
-7.9080e-01,0.16,3.4
-7.9072e-01,0.16,3.4
-7.9064e-01,0.16,3.4
-7.9056e-01,0.16,3.44
-7.9048e-01,0.08,3.4
-7.9040e-01,0.04,3.36
-7.9032e-01,0.16,3.4
-7.9024e-01,0.12,3.4
-7.9016e-01,0.08,3.4
-7.9008e-01,0.12,3.4
-7.9000e-01,0.16,3.44
-7.8992e-01,0.08,3.44
-7.8984e-01,0.12,3.4
-7.8976e-01,0.12,3.4
-7.8968e-01,0.12,3.4
-7.8960e-01,0.16,3.4
-7.8952e-01,0.12,3.4
-7.8944e-01,0.16,3.4
-7.8936e-01,0.12,3.44
-7.8928e-01,0.16,3.44
-7.8920e-01,0.12,3.4
-7.8912e-01,0.12,3.44
-7.8904e-01,0.12,3.4
-7.8896e-01,0.12,3.36
-7.8888e-01,0.12,3.4
-7.8880e-01,0.12,3.44
-7.8872e-01,0.12,3.44
-7.8864e-01,0.12,3.44
-7.8856e-01,0.12,3.4
-7.8848e-01,0.08,3.4
-7.8840e-01,0.12,3.4
-7.8832e-01,0.12,3.44
-7.8824e-01,0.08,3.44
-7.8816e-01,0.16,3.4
-7.8808e-01,0.16,3.4
-7.8800e-01,0.12,3.44
-7.8792e-01,0.12,3.4
-7.8784e-01,0.08,3.4
-7.8776e-01,0.16,3.4
-7.8768e-01,0.12,3.44
-7.8760e-01,0.12,3.4
-7.8752e-01,0.16,3.44
-7.8744e-01,0.12,3.44
-7.8736e-01,0.12,3.36
-7.8728e-01,0.12,3.4
-7.8720e-01,0.12,3.44
-7.8712e-01,0.16,3.4
-7.8704e-01,0.12,3.44
-7.8696e-01,0.16,3.44
-7.8688e-01,0.12,3.4
-7.8680e-01,0.12,3.4
-7.8672e-01,0.12,3.44
-7.8664e-01,0.16,3.4
-7.8656e-01,0.12,3.4
-7.8648e-01,0.12,3.4
-7.8640e-01,0.12,3.36
-7.8632e-01,0.16,3.4
-7.8624e-01,0.12,3.36
-7.8616e-01,0.12,3.4
-7.8608e-01,0.12,3.44
-7.8600e-01,0.12,3.36
-7.8592e-01,0.12,3.44
-7.8584e-01,0.08,3.4
-7.8576e-01,0.16,3.4
-7.8568e-01,0.16,3.44
-7.8560e-01,0.12,3.4
-7.8552e-01,0.12,3.44
-7.8544e-01,0.12,3.44
-7.8536e-01,0.12,3.4
-7.8528e-01,0,3.28
-7.8520e-01,0.12,3.44
-7.8512e-01,0.12,3.4
-7.8504e-01,0.12,3.4
-7.8496e-01,0.12,3.44
-7.8488e-01,0.16,3.4
-7.8480e-01,0.12,3.44
-7.8472e-01,0.12,3.4
-7.8464e-01,0.16,3.44
-7.8456e-01,0.12,3.44
-7.8448e-01,0.16,3.36
-7.8440e-01,0.12,3.44
-7.8432e-01,0.12,3.44
-7.8424e-01,0.12,3.36
-7.8416e-01,0.16,3.44
-7.8408e-01,0.12,3.4
-7.8400e-01,0.12,3.4
-7.8392e-01,0.16,3.44
-7.8384e-01,0.12,3.4
-7.8376e-01,0.12,3.4
-7.8368e-01,0.12,3.4
-7.8360e-01,0.12,3.4
-7.8352e-01,0.16,3.44
-7.8344e-01,0.12,3.4
-7.8336e-01,0.12,3.4
-7.8328e-01,0.08,3.44
-7.8320e-01,0.16,3.4
-7.8312e-01,0.16,3.4
-7.8304e-01,0.12,3.4
-7.8296e-01,0.12,3.4
-7.8288e-01,0.12,3.4
-7.8280e-01,0.08,3.4
-7.8272e-01,0.12,3.4
-7.8264e-01,0.12,3.4
-7.8256e-01,0.12,3.4
-7.8248e-01,0.12,3.4
-7.8240e-01,0.12,3.44
-7.8232e-01,0.08,3.44
-7.8224e-01,0.16,3.4
-7.8216e-01,0.12,3.4
-7.8208e-01,0.12,3.4
-7.8200e-01,0.12,3.44
-7.8192e-01,0.12,3.4
-7.8184e-01,0.12,3.4
-7.8176e-01,0.12,3.36
-7.8168e-01,0.08,3.4
-7.8160e-01,0.12,3.44
-7.8152e-01,0.12,3.4
-7.8144e-01,0.12,3.4
-7.8136e-01,0.08,3.4
-7.8128e-01,0.08,3.36
-7.8120e-01,0.12,3.44
-7.8112e-01,0.08,3.4
-7.8104e-01,0.08,3.4
-7.8096e-01,0.12,3.4
-7.8088e-01,0.12,3.4
-7.8080e-01,0.12,3.44
-7.8072e-01,0.12,3.4
-7.8064e-01,0.12,3.4
-7.8056e-01,0.12,3.44
-7.8048e-01,0.08,3.4
-7.8040e-01,0.08,3.4
-7.8032e-01,0.08,3.4
-7.8024e-01,0.12,3.4
-7.8016e-01,0.12,3.4
-7.8008e-01,0.08,3.4
-7.8000e-01,0.12,3.4
-7.7992e-01,0.12,3.44
-7.7984e-01,0.12,3.36
-7.7976e-01,0.12,3.4
-7.7968e-01,0.12,3.44
-7.7960e-01,0.12,3.44
-7.7952e-01,0.12,3.36
-7.7944e-01,0.12,3.44
-7.7936e-01,0.12,3.4
-7.7928e-01,0.12,3.44
-7.7920e-01,0.12,3.4
-7.7912e-01,0.12,3.4
-7.7904e-01,0.12,3.4
-7.7896e-01,0.08,3.4
-7.7888e-01,0.28,3.52
-7.7880e-01,0.16,3.44
-7.7872e-01,0.12,3.4
-7.7864e-01,0.12,3.4
-7.7856e-01,0.16,3.4
-7.7848e-01,0.12,3.4
-7.7840e-01,0.12,3.4
-7.7832e-01,0.16,3.44
-7.7824e-01,0.12,3.4
-7.7816e-01,0.12,3.44
-7.7808e-01,0.12,3.4
-7.7800e-01,0.12,3.4
-7.7792e-01,0.08,3.4
-7.7784e-01,0.12,3.4
-7.7776e-01,0.16,3.44
-7.7768e-01,0.12,3.4
-7.7760e-01,0.08,3.36
-7.7752e-01,0.16,3.44
-7.7744e-01,0.12,3.4
-7.7736e-01,0.12,3.4
-7.7728e-01,0.12,3.36
-7.7720e-01,0.08,3.4
-7.7712e-01,0.12,3.4
-7.7704e-01,0.16,3.36
-7.7696e-01,0.12,3.36
-7.7688e-01,0.12,3.4
-7.7680e-01,0.16,3.4
-7.7672e-01,0.12,3.4
-7.7664e-01,0.12,3.44
-7.7656e-01,0.12,3.44
-7.7648e-01,0.16,3.4
-7.7640e-01,0.12,3.4
-7.7632e-01,0.12,3.44
-7.7624e-01,0.2,3.48
-7.7616e-01,0.12,3.44
-7.7608e-01,0.12,3.44
-7.7600e-01,0.08,3.36
-7.7592e-01,0.16,3.44
-7.7584e-01,0.12,3.44
-7.7576e-01,0.16,3.36
-7.7568e-01,0.16,3.36
-7.7560e-01,0.12,3.44
-7.7552e-01,0.12,3.4
-7.7544e-01,0.12,3.4
-7.7536e-01,0.12,3.4
-7.7528e-01,0.16,3.44
-7.7520e-01,0.12,3.4
-7.7512e-01,0.16,3.4
-7.7504e-01,0.08,3.4
-7.7496e-01,0.12,3.44
-7.7488e-01,0.16,3.4
-7.7480e-01,0.16,3.44
-7.7472e-01,0.12,3.44
-7.7464e-01,0.16,3.44
-7.7456e-01,0.12,3.44
-7.7448e-01,0.12,3.44
-7.7440e-01,0.08,3.44
-7.7432e-01,0.16,3.4
-7.7424e-01,0.16,3.44
-7.7416e-01,0.12,3.4
-7.7408e-01,0.08,3.4
-7.7400e-01,0.12,3.4
-7.7392e-01,0.12,3.4
-7.7384e-01,0.12,3.44
-7.7376e-01,0.16,3.4
-7.7368e-01,0.12,3.4
-7.7360e-01,0.16,3.44
-7.7352e-01,0.08,3.4
-7.7344e-01,0.16,3.4
-7.7336e-01,0.16,3.44
-7.7328e-01,0.12,3.44
-7.7320e-01,0.08,3.44
-7.7312e-01,0.12,3.44
-7.7304e-01,0.16,3.4
-7.7296e-01,0.16,3.4
-7.7288e-01,0.16,3.44
-7.7280e-01,0.08,3.4
-7.7272e-01,0.12,3.44
-7.7264e-01,0.08,3.4
-7.7256e-01,0.12,3.4
-7.7248e-01,0.12,3.4
-7.7240e-01,0.12,3.44
-7.7232e-01,0.16,3.44
-7.7224e-01,0.16,3.44
-7.7216e-01,0.16,3.4
-7.7208e-01,0.12,3.4
-7.7200e-01,0.12,3.4
-7.7192e-01,0.16,3.4
-7.7184e-01,0.12,3.4
-7.7176e-01,0.16,3.4
-7.7168e-01,0.12,3.44
-7.7160e-01,0.08,3.36
-7.7152e-01,0.12,3.4
-7.7144e-01,0.12,3.44
-7.7136e-01,0.08,3.36
-7.7128e-01,0.08,3.36
-7.7120e-01,0.12,3.44
-7.7112e-01,0.12,3.36
-7.7104e-01,0.16,3.44
-7.7096e-01,0.12,3.44
-7.7088e-01,0.08,3.4
-7.7080e-01,0.12,3.44
-7.7072e-01,0.08,3.4
-7.7064e-01,0.12,3.44
-7.7056e-01,0.12,3.44
-7.7048e-01,0.08,3.4
-7.7040e-01,0.12,3.36
-7.7032e-01,0.12,3.4
-7.7024e-01,0.08,3.4
-7.7016e-01,0.16,3.44
-7.7008e-01,0.08,3.4
-7.7000e-01,0.12,3.4
-7.6992e-01,0.12,3.44
-7.6984e-01,0.08,3.4
-7.6976e-01,0.12,3.36
-7.6968e-01,0.12,3.4
-7.6960e-01,0.12,3.36
-7.6952e-01,0.12,3.44
-7.6944e-01,0.12,3.44
-7.6936e-01,0.12,3.4
-7.6928e-01,0.08,3.4
-7.6920e-01,0.08,3.4
-7.6912e-01,0.12,3.44
-7.6904e-01,0.12,3.4
-7.6896e-01,0,3.32
-7.6888e-01,0.12,3.36
-7.6880e-01,0.12,3.4
-7.6872e-01,0.2,3.48
-7.6864e-01,0.16,3.44
-7.6856e-01,0.12,3.4
-7.6848e-01,0.12,3.44
-7.6840e-01,0.12,3.4
-7.6832e-01,0.12,3.4
-7.6824e-01,0.12,3.4
-7.6816e-01,0.12,3.4
-7.6808e-01,0.08,3.4
-7.6800e-01,0.12,3.44
-7.6792e-01,0.12,3.36
-7.6784e-01,0.08,3.4
-7.6776e-01,0.12,3.36
-7.6768e-01,0.12,3.36
-7.6760e-01,0.12,3.4
